Sample student data available for the years 2000-2022 from the PISA OECD database — student_subset_2000 • learningtower
…
#> 
#> Attaching package: ‘dplyr’
#> The following objects are masked from ‘package:stats’:
#> 
#>     filter, lag
#> The following objects are masked from ‘package:base’:
#> 
#>     intersect, setdiff, setequal, union
data(student_subset_2000)
data(student_subset_2003)
dplyr::bind_rows(
student_subset_2000,
student_subset_2003
)
#> # A tibble: 3,100 × 22
#>    country school_id student_id mother_educ father_educ gender computer internet
#>    <fct>   <fct>          <int> <fct>       <fct>       <fct>  <fct>    <fct>   
#>  1 AUS     4187            2901 NA          NA          male   NA       no      
#>  2 AUS     2120             999 NA          NA          male   NA       yes     
#>  3 AUS     2197            1278 NA          NA          female NA       yes     
#>  4 AUS     4008            2315 NA          NA          female NA       no      
#>  5 AUS     3060            1660 NA          NA          male   NA       no      
#>  6 AUS     8004            4845 NA          NA          female NA       yes     
#>  7 AUS     1108             200 NA          NA          male   NA       no      
#>  8 AUS     5039            3202 NA          NA          female NA       yes     
#>  9 AUS     3114            1858 NA          NA          female NA       yes     
#> 10 AUS     3158            1915 NA          NA          male   NA       yes     
#> # ℹ 3,090 more rows
#> # ℹ 14 more variables: math <dbl>, read <dbl>, science <dbl>, stu_wgt <dbl>,
#> #   desk <fct>, room <fct>, dishwasher <fct>, television <fct>,
#> #   computer_n <fct>, car <fct>, book <fct>, wealth <dbl>, escs <dbl>,
#> #   year <fct>
…
