Exploring temporal trends
…
3.1 Australia, New Zealand, Indonesia

A core of this package was built at the 2019 OzUnconf in Australia. Hence, we focus on three countries in the APAC region for more detailed visualisations. In the plot below, the dark line is the weighted mean score of each country for each subject. The shading indicates the min and max score of a given year. We can see that when looking at range of scores, the variations in the mean of the data is almost negligible. We will explore this effect in details later.

stu_summ_long2 = stu_summ %>% 
  filter(country %in% c("AUS", "NZL", "IDN")) %>% 
  pivot_longer(cols = math_wmean:science_max, 
               names_to = "names",
               values_to = "values") %>% 
  separate(col = names, into = c("subject", "statistics"), sep = "_") %>% 
  pivot_wider(names_from = "statistics",
              values_from = "values")
stu_summ_long2
#> # A tibble: 63 x 6
#>     year country subject wmean   min   max
#>    <int> <fct>   <chr>   <dbl> <dbl> <dbl>
#>  1  2000 AUS     math     530. 211.   784.
#>  2  2000 AUS     read     529. 159    828.
#>  3  2000 AUS     science  527. 167.   800.
#>  4  2000 IDN     math     371.  88.5  646.
#>  5  2000 IDN     read     376.  93.3  610.
#>  6  2000 IDN     science  394.  84.4  680.
#>  7  2000 NZL     math     537. 195.   796.
#>  8  2000 NZL     read     529. 134.   834.
#>  9  2000 NZL     science  528. 169.   830.
#> 10  2003 AUS     math     524. 161.   833.
#> # ... with 53 more rows
…
plot_tbl = complete_nations %>% 
  as_tibble() %>% 
  select(year, country, math_wmean, read_wmean, science_wmean) %>% 
  pivot_longer(cols = contains("_wmean"),
               names_to = "subject", 
               values_to = "wmean_value") %>%
  left_join(feature_monotone_long, by = c("country", "subject")) %>% 
  left_join(countrycode, by = "country")

plot_tbl
#> # A tibble: 2,130 x 7
#>     year country subject       wmean_value direction monotone_value country_name
#>    <int> <chr>   <chr>               <dbl> <chr>     <lgl>          <chr>       
#>  1  2000 ALB     math_wmean           395. increase  FALSE          Albania     
#>  2  2000 ALB     math_wmean           395. decrease  FALSE          Albania     
#>  3  2000 ALB     read_wmean           354. increase  TRUE           Albania     
#>  4  2000 ALB     read_wmean           354. decrease  FALSE          Albania     
#>  5  2000 ALB     science_wmean        378. increase  FALSE          Albania     
#>  6  2000 ALB     science_wmean        378. decrease  FALSE          Albania     
#>  7  2009 ALB     math_wmean           377. increase  FALSE          Albania     
#>  8  2009 ALB     math_wmean           377. decrease  FALSE          Albania     
#>  9  2009 ALB     read_wmean           385. increase  TRUE           Albania     
#> 10  2009 ALB     read_wmean           385. decrease  FALSE          Albania     
#> # ... with 2,120 more rows
…
