Exploring temporal trends • learningtower
…
Australia, New Zealand, Indonesia

We focus on three countries here. The dark line is the weighted mean score of each country for each subject. The shading indicates the min and max score of a given year.

stu_summ_long2 = stu_summ %>%
  filter(country %in% c("AUS", "NZL", "IDN")) %>%
  pivot_longer(cols = math_wmean:science_max,
               names_to = "names",
               values_to = "values") %>%
  separate(col = names, into = c("subject", "statistics"), sep = "_") %>%
  pivot_wider(names_from = "statistics",
                     values_from = "values")
stu_summ_long2
#> # A tibble: 63 x 6
#>     year country subject wmean   min   max
#>    <int> <fct>   <chr>   <dbl> <dbl> <dbl>
#>  1  2000 AUS     math     530. 211.   784.
#>  2  2000 AUS     read     529. 159    828.
#>  3  2000 AUS     science  527. 167.   800.
#>  4  2000 IDN     math     371.  88.5  646.
#>  5  2000 IDN     read     376.  93.3  610.
#>  6  2000 IDN     science  394.  84.4  680.
#>  7  2000 NZL     math     537. 195.   796.
#>  8  2000 NZL     read     529. 134.   834.
#>  9  2000 NZL     science  528. 169.   830.
#> 10  2003 AUS     math     524. 161.   833.
#> # … with 53 more rows
…
# math_features <- complete_nations %>% 
#   features(math_wmean, feat_brolgar)
# 
# math_features

math_monotone = complete_nations %>%
  features_at(.var = vars(math_wmean),
           features = feat_monotonic)

math_monotone
#> # A tibble: 34 x 5
#>    country math_wmean_incre… math_wmean_decre… math_wmean_unva… math_wmean_mono…
#>    <fct>   <lgl>             <lgl>             <lgl>            <lgl>           
#>  1 AUS     FALSE             TRUE              FALSE            TRUE            
#>  2 AUT     FALSE             FALSE             FALSE            FALSE           
#>  3 BEL     FALSE             FALSE             FALSE            FALSE           
#>  4 BRA     FALSE             FALSE             FALSE            FALSE           
#>  5 CAN     FALSE             FALSE             FALSE            FALSE           
#>  6 CHE     FALSE             FALSE             FALSE            FALSE           
#>  7 CZE     FALSE             FALSE             FALSE            FALSE           
#>  8 DEU     FALSE             FALSE             FALSE            FALSE           
#>  9 DNK     FALSE             FALSE             FALSE            FALSE           
#> 10 ESP     FALSE             FALSE             FALSE            FALSE           
#> # … with 24 more rows
…
