Visualise differential distribution between countries • learningtower
…
selected_country_avg = student %>% 
  filter(country %in% selected_countries) %>% 
  group_by(year, country) %>% 
  summarise(
    math_p25 = quantile(math, 0.25, na.rm = TRUE),
    math_p50 = quantile(math, 0.50, na.rm = TRUE),
    math_p75 = quantile(math, 0.75, na.rm = TRUE))

## `summarise()` regrouping output by 'year' (override with `.groups` argument)

student %>% 
  filter(country %in% selected_countries, year == 2003)

## # A tibble: 17,258 x 22
##    year  country school_id student_id mother_educ father_educ gender computer
##    <fct> <fct>   <fct>     <fct>      <fct>       <fct>       <fct>  <fct>   
##  1 2003  AUS     00001     00001      less than … ISCED 3A    male   no      
##  2 2003  AUS     00001     00002      ISCED 3A    ISCED 3A    male   yes     
##  3 2003  AUS     00001     00003      ISCED 3A    ISCED 2     female yes     
##  4 2003  AUS     00001     00004      ISCED 3B, C ISCED 3A    female yes     
##  5 2003  AUS     00001     00005      ISCED 3B, C ISCED 3B, C female yes     
##  6 2003  AUS     00001     00006      ISCED 3B, C ISCED 3A    male   yes     
##  7 2003  AUS     00001     00007      ISCED 3B, C ISCED 3B, C female yes     
##  8 2003  AUS     00001     00008      ISCED 2     ISCED 2     male   no      
##  9 2003  AUS     00001     00009      <NA>        <NA>        male   yes     
## 10 2003  AUS     00001     00010      less than … ISCED 3B, C female yes     
## # … with 17,248 more rows, and 14 more variables: internet <fct>, math <dbl>,
## #   read <dbl>, science <dbl>, stu_wgt <dbl>, desk <fct>, room <fct>,
## #   dishwasher <fct>, television <fct>, computer_n <fct>, car <fct>,
## #   book <fct>, wealth <dbl>, escs <dbl>
…
